{
	"info": {
		"_postman_id": "f138e99a-7672-45dd-a425-fca1b19e4a39",
		"name": "Franq",
		"schema": "https://schema.getpostman.com/json/collection/v2.1.0/collection.json"
	},
	"item": [
		{
			"name": "Pessoa",
			"item": [
				{
					"name": "Pessoas",
					"request": {
						"method": "GET",
						"header": [],
						"url": {
							"raw": "http://localhost:8001/pessoa/",
							"protocol": "http",
							"host": [
								"localhost"
							],
							"port": "8001",
							"path": [
								"pessoa",
								""
							]
						}
					},
					"response": []
				},
				{
					"name": "Pessoa",
					"request": {
						"method": "POST",
						"header": [],
						"body": {
							"mode": "raw",
							"raw": "{\r\n    \"password\": \"Teste@123\",\r\n    \"telefone\": \"123456789\",\r\n    \"first_name\": \"Teste\",\r\n    \"last_name\": \"Teste2\",\r\n    \"email\": \"test2@franq.com\"\r\n}",
							"options": {
								"raw": {
									"language": "json"
								}
							}
						},
						"url": {
							"raw": "http://localhost:8001/admin/pessoa/",
							"protocol": "http",
							"host": [
								"localhost"
							],
							"port": "8001",
							"path": [
								"admin",
								"pessoa",
								""
							]
						}
					},
					"response": []
				}
			],
			"auth": {
				"type": "bearer",
				"bearer": [
					{
						"key": "token",
						"value": "{{token_pessoa}}",
						"type": "string"
					}
				]
			},
			"event": [
				{
					"listen": "prerequest",
					"script": {
						"type": "text/javascript",
						"exec": [
							"pm.sendRequest({",
							"    url: 'http://127.0.0.1:8001/api/token/',",
							"    method: 'POST',",
							"    header: {",
							"        'content-type': 'application/json'",
							"    },",
							"    body: {",
							"        mode: 'raw',",
							"        raw: JSON.stringify({email: \"teste@franq.com\", password: \"123\"})",
							"    }",
							"}, (err, res) => pm.collectionVariables.set(\"token_pessoa\", res.json().access));"
						]
					}
				},
				{
					"listen": "test",
					"script": {
						"type": "text/javascript",
						"exec": [
							""
						]
					}
				}
			]
		},
		{
			"name": "Garagem",
			"item": [
				{
					"name": "Consumidor",
					"request": {
						"method": "POST",
						"header": [],
						"body": {
							"mode": "raw",
							"raw": "{\r\n    \"telefone\": \"123456789\",\r\n    \"email\": \"teste@teste.com\"\r\n}",
							"options": {
								"raw": {
									"language": "json"
								}
							}
						},
						"url": {
							"raw": "http://127.0.0.1:8002/garagem/",
							"protocol": "http",
							"host": [
								"127",
								"0",
								"0",
								"1"
							],
							"port": "8002",
							"path": [
								"garagem",
								""
							]
						}
					},
					"response": []
				},
				{
					"name": "Veículos disponíveis",
					"request": {
						"method": "GET",
						"header": [],
						"url": {
							"raw": "http://127.0.0.1:8002/veiculos_disponiveis/",
							"protocol": "http",
							"host": [
								"127",
								"0",
								"0",
								"1"
							],
							"port": "8002",
							"path": [
								"veiculos_disponiveis",
								""
							]
						}
					},
					"response": []
				},
				{
					"name": "Escolher veículo",
					"request": {
						"method": "POST",
						"header": [],
						"body": {
							"mode": "raw",
							"raw": "{\r\n    \"veiculo\": 1,\r\n    \"consumidor\": 1\r\n}",
							"options": {
								"raw": {
									"language": "json"
								}
							}
						},
						"url": {
							"raw": "http://127.0.0.1:8002/escolher_veiculo/",
							"protocol": "http",
							"host": [
								"127",
								"0",
								"0",
								"1"
							],
							"port": "8002",
							"path": [
								"escolher_veiculo",
								""
							]
						}
					},
					"response": []
				},
				{
					"name": "Devolver veículo",
					"request": {
						"method": "POST",
						"header": [],
						"url": {
							"raw": "http://127.0.0.1:8002/devolver_veiculo/1/",
							"protocol": "http",
							"host": [
								"127",
								"0",
								"0",
								"1"
							],
							"port": "8002",
							"path": [
								"devolver_veiculo",
								"1",
								""
							]
						}
					},
					"response": []
				},
				{
					"name": "Veículos por consumidor",
					"request": {
						"method": "GET",
						"header": [],
						"url": {
							"raw": "http://127.0.0.1:8002/veiculos_consumidor/1/",
							"protocol": "http",
							"host": [
								"127",
								"0",
								"0",
								"1"
							],
							"port": "8002",
							"path": [
								"veiculos_consumidor",
								"1",
								""
							]
						}
					},
					"response": []
				},
				{
					"name": "Veículo",
					"request": {
						"method": "GET",
						"header": [],
						"url": {
							"raw": "http://127.0.0.1:8002/veiculo/3/",
							"protocol": "http",
							"host": [
								"127",
								"0",
								"0",
								"1"
							],
							"port": "8002",
							"path": [
								"veiculo",
								"3",
								""
							]
						}
					},
					"response": []
				},
				{
					"name": "Aggregate dados",
					"request": {
						"method": "GET",
						"header": [],
						"url": {
							"raw": "http://127.0.0.1:8002/agg_garagem/",
							"protocol": "http",
							"host": [
								"127",
								"0",
								"0",
								"1"
							],
							"port": "8002",
							"path": [
								"agg_garagem",
								""
							]
						}
					},
					"response": []
				}
			],
			"auth": {
				"type": "bearer",
				"bearer": [
					{
						"key": "token",
						"value": "{{token_garagem}}",
						"type": "string"
					}
				]
			},
			"event": [
				{
					"listen": "prerequest",
					"script": {
						"type": "text/javascript",
						"exec": [
							"pm.sendRequest({",
							"    url: 'http://127.0.0.1:8002/api/token/',",
							"    method: 'POST',",
							"    header: {",
							"        'content-type': 'application/json'",
							"    },",
							"    body: {",
							"        mode: 'raw',",
							"        raw: JSON.stringify({username: \"teste\", password: \"123\"})",
							"    }",
							"}, (err, res) => pm.collectionVariables.set(\"token_garagem\", res.json().access));"
						]
					}
				},
				{
					"listen": "test",
					"script": {
						"type": "text/javascript",
						"exec": [
							""
						]
					}
				}
			]
		}
	],
	"event": [
		{
			"listen": "prerequest",
			"script": {
				"type": "text/javascript",
				"exec": [
					""
				]
			}
		},
		{
			"listen": "test",
			"script": {
				"type": "text/javascript",
				"exec": [
					""
				]
			}
		}
	],
	"variable": [
		{
			"key": "token_pessoa",
			"value": ""
		},
		{
			"key": "token_garagem",
			"value": ""
		}
	]
}